…
  cg03003335           T rs190924588
  -------
  seqinfo: 23 sequences from an unspecified genome; no seqlengths
[swifthoof_main]: Launching Samples in Linear Mode! isSingle=FALSE
[getManifestList]:	 Starting...
[getManifestList]:	 path=auto; dir=/repo/Infinium_Methylation_Workhorse/dat/manifest/core.
[getManifestList]:	 paths(4)=
[1] "/repo/Infinium_Methylation_Workhorse/dat/manifest/core/EPIC-A1.manifest.sesame-base.cpg-sorted.csv.gz" 
[2] "/repo/Infinium_Methylation_Workhorse/dat/manifest/core/EPIC-B4.manifest.sesame-base.cpg-sorted.csv.gz" 
[3] "/repo/Infinium_Methylation_Workhorse/dat/manifest/core/HM450-B2.manifest.sesame-base.cpg-sorted.csv.gz"
[4] "/repo/Infinium_Methylation_Workhorse/dat/manifest/core/LEGX-C24.manifest.sesame-base.cpg-sorted.csv.gz"
[getManifestList]:		 Loading manifest=/repo/Infinium_Methylation_Workhorse/dat/manifest/core/EPIC-A1.manifest.sesame-base.cpg-sorted.csv.gz...
[getManifestList]:		 Done; Loading manifest.

# A tibble: 937,690 x 11
   Probe_ID       M      U DESIGN COLOR_CHANNEL col   Probe_Type Probe_Source
   <chr>      <int>  <int> <chr>  <chr>         <chr> <chr>      <chr>       
 1 cg14622~ NA      3.76e7 II     Both          <NA>  cg         EPIC-A1     
 2 cg26808~  7.58e7 6.16e7 I      Grn           G     cg         EPIC-A1     
 3 cg20891~  7.67e7 9.98e7 I      Red           R     cg         EPIC-A1     
 4 cg03414~  4.08e7 2.38e7 I      Red           R     cg         EPIC-A1     
 5 cg12499~  5.72e6 2.38e7 I      Grn           G     cg         EPIC-A1     
 6 cg23516~  4.07e7 1.98e7 I      Grn           G     cg         EPIC-A1     
 7 cg12587~  2.06e7 2.88e7 I      Red           R     cg         EPIC-A1     
 8 cg02014~  7.67e7 4.08e7 I      Red           R     cg         EPIC-A1     
 9 cg14937~  4.16e7 7.36e7 I      Red           R     cg         EPIC-A1     
10 cg17985~  4.17e7 2.88e7 I      Red           R     cg         EPIC-A1     
# ... with 937,680 more rows, and 3 more variables: Next_Base <chr>,
#   Probe_Design <chr>, Full_ID <chr>
[getManifestList]:		 Loading manifest=/repo/Infinium_Methylation_Workhorse/dat/manifest/core/EPIC-B4.manifest.sesame-base.cpg-sorted.csv.gz...
[getManifestList]:		 Done; Loading manifest.

# A tibble: 866,553 x 10
   Probe_ID     M      U DESIGN COLOR_CHANNEL col   Probe_Type Probe_Source
   <chr>    <int>  <int> <chr>  <chr>         <chr> <chr>      <chr>       
 1 cg00000~    NA 4.07e7 II     Both          <NA>  cg         EPIC-B4     
 2 cg00000~    NA 7.67e7 II     Both          <NA>  cg         EPIC-B4     
 3 cg00000~    NA 3.98e7 II     Both          <NA>  cg         EPIC-B4     
 4 cg00000~    NA 2.27e7 II     Both          <NA>  cg         EPIC-B4     
 5 cg00000~    NA 3.36e7 II     Both          <NA>  cg         EPIC-B4     
 6 cg00000~    NA 8.71e6 II     Both          <NA>  cg         EPIC-B4     
 7 cg00000~    NA 9.38e7 II     Both          <NA>  cg         EPIC-B4     
 8 cg00000~    NA 6.36e7 II     Both          <NA>  cg         EPIC-B4     
 9 cg00000~    NA 1.27e7 II     Both          <NA>  cg         EPIC-B4     
10 cg00000~    NA 9.47e7 II     Both          <NA>  cg         EPIC-B4     
# ... with 866,543 more rows, and 2 more variables: Next_Base <chr>,
#   Probe_Design <chr>
[getManifestList]:		 Loading manifest=/repo/Infinium_Methylation_Workhorse/dat/manifest/core/HM450-B2.manifest.sesame-base.cpg-sorted.csv.gz...
[getManifestList]:		 Done; Loading manifest.

# A tibble: 486,427 x 12
   Probe_ID       M      U DESIGN COLOR_CHANNEL col   Probe_Type Probe_Source
   <chr>      <int>  <int> <chr>  <chr>         <chr> <chr>      <chr>       
 1 cg00000~ NA      1.48e7 II     Both          <NA>  cg         HM450-B2    
 2 cg00000~ NA      1.27e7 II     Both          <NA>  cg         HM450-B2    
 3 cg00000~ NA      5.98e7 II     Both          <NA>  cg         HM450-B2    
 4 cg00000~ NA      1.26e7 II     Both          <NA>  cg         HM450-B2    
 5 cg00000~ NA      1.26e7 II     Both          <NA>  cg         HM450-B2    
 6 cg00000~ NA      1.88e7 II     Both          <NA>  cg         HM450-B2    
 7 cg00000~ NA      4.38e7 II     Both          <NA>  cg         HM450-B2    
 8 cg00000~ NA      6.28e7 II     Both          <NA>  cg         HM450-B2    
 9 cg00000~ NA      1.67e7 II     Both          <NA>  cg         HM450-B2    
10 cg00000~  3.87e7 1.16e7 I      Red           R     cg         HM450-B2    
# ... with 486,417 more rows, and 4 more variables: Next_Base <chr>,
#   Next_Base_hg19 <chr>, Next_Base_hg38 <chr>, Probe_Design <chr>
[getManifestList]:		 Loading manifest=/repo/Infinium_Methylation_Workhorse/dat/manifest/core/LEGX-C24.manifest.sesame-base.cpg-sorted.csv.gz...
[getManifestList]:		 Done; Loading manifest.

# A tibble: 297,415 x 36
   Probe_ID     M      U DESIGN COLOR_CHANNEL col   Next_Base Seq_ID Probe_Type
   <chr>    <int>  <int> <chr>  <chr>         <chr> <chr>     <chr>  <chr>     
 1 cg00101~    NA 9.17e7 II     Both          <NA>  <NA>      cg001~ cg        
 2 cg00116~    NA 2.06e7 II     Both          <NA>  <NA>      cg001~ cg        
 3 cg00211~    NA 6.76e7 II     Both          <NA>  <NA>      cg002~ cg        
 4 cg00531~    NA 3.76e6 II     Both          <NA>  <NA>      cg005~ cg        
 5 cg00747~    NA 5.57e7 II     Both          <NA>  <NA>      cg007~ cg        
 6 cg00896~    NA 2.87e7 II     Both          <NA>  <NA>      cg008~ cg        
 7 cg00910~    NA 8.48e7 II     Both          <NA>  <NA>      cg009~ cg        
 8 cg00920~    NA 4.58e7 II     Both          <NA>  <NA>      cg009~ cg        
 9 cg01326~    NA 4.67e7 II     Both          <NA>  <NA>      cg013~ cg        
10 cg01340~    NA 4.78e7 II     Both          <NA>  <NA>      cg013~ cg        
# ... with 297,405 more rows, and 27 more variables: Probe_Source <chr>,
#   Version <chr>, Strand_TB <chr>, Strand_CO <chr>, Infinium_Design <dbl>,
#   AlleleA_Probe_Sequence <chr>, AlleleB_Probe_Sequence <chr>,
#   Probe_Class <chr>, Seq_48U <chr>, AQP <dbl>, Rep_Cnt <dbl>, ValidID <lgl>,
#   Assay_Class <chr>, Top_Sequence <chr>, Design_ID <lgl>, PIDX <lgl>,
#   Design_Base_ID <lgl>, Design_Base_AB <lgl>, Control_Group <lgl>,
#   Control_Group_Str <lgl>, DiNuc <lgl>, N1 <lgl>, N2 <lgl>,
#   COLOR_CHANNEL_A <lgl>, COLOR_CHANNEL_B <lgl>, PID_CNT <lgl>,
#   Probe_Design <chr>
$`EPIC-A1`
# A tibble: 937,690 x 11
   Probe_ID       M      U DESIGN COLOR_CHANNEL col   Probe_Type Probe_Source
   <chr>      <int>  <int> <chr>  <chr>         <chr> <chr>      <chr>       
 1 cg14622~ NA      3.76e7 II     Both          <NA>  cg         EPIC-A1     
 2 cg26808~  7.58e7 6.16e7 I      Grn           G     cg         EPIC-A1     
 3 cg20891~  7.67e7 9.98e7 I      Red           R     cg         EPIC-A1     
 4 cg03414~  4.08e7 2.38e7 I      Red           R     cg         EPIC-A1     
 5 cg12499~  5.72e6 2.38e7 I      Grn           G     cg         EPIC-A1     
 6 cg23516~  4.07e7 1.98e7 I      Grn           G     cg         EPIC-A1     
 7 cg12587~  2.06e7 2.88e7 I      Red           R     cg         EPIC-A1     
 8 cg02014~  7.67e7 4.08e7 I      Red           R     cg         EPIC-A1     
 9 cg14937~  4.16e7 7.36e7 I      Red           R     cg         EPIC-A1     
10 cg17985~  4.17e7 2.88e7 I      Red           R     cg         EPIC-A1     
# ... with 937,680 more rows, and 3 more variables: Next_Base <chr>,
#   Probe_Design <chr>, Full_ID <chr>

$`EPIC-B4`
# A tibble: 866,553 x 10
   Probe_ID     M      U DESIGN COLOR_CHANNEL col   Probe_Type Probe_Source
   <chr>    <int>  <int> <chr>  <chr>         <chr> <chr>      <chr>       
 1 cg00000~    NA 4.07e7 II     Both          <NA>  cg         EPIC-B4     
 2 cg00000~    NA 7.67e7 II     Both          <NA>  cg         EPIC-B4     
 3 cg00000~    NA 3.98e7 II     Both          <NA>  cg         EPIC-B4     
 4 cg00000~    NA 2.27e7 II     Both          <NA>  cg         EPIC-B4     
 5 cg00000~    NA 3.36e7 II     Both          <NA>  cg         EPIC-B4     
 6 cg00000~    NA 8.71e6 II     Both          <NA>  cg         EPIC-B4     
 7 cg00000~    NA 9.38e7 II     Both          <NA>  cg         EPIC-B4     
 8 cg00000~    NA 6.36e7 II     Both          <NA>  cg         EPIC-B4     
 9 cg00000~    NA 1.27e7 II     Both          <NA>  cg         EPIC-B4     
10 cg00000~    NA 9.47e7 II     Both          <NA>  cg         EPIC-B4     
# ... with 866,543 more rows, and 2 more variables: Next_Base <chr>,
#   Probe_Design <chr>

$`HM450-B2`
# A tibble: 486,427 x 12
   Probe_ID       M      U DESIGN COLOR_CHANNEL col   Probe_Type Probe_Source
   <chr>      <int>  <int> <chr>  <chr>         <chr> <chr>      <chr>       
 1 cg00000~ NA      1.48e7 II     Both          <NA>  cg         HM450-B2    
 2 cg00000~ NA      1.27e7 II     Both          <NA>  cg         HM450-B2    
 3 cg00000~ NA      5.98e7 II     Both          <NA>  cg         HM450-B2    
 4 cg00000~ NA      1.26e7 II     Both          <NA>  cg         HM450-B2    
 5 cg00000~ NA      1.26e7 II     Both          <NA>  cg         HM450-B2    
 6 cg00000~ NA      1.88e7 II     Both          <NA>  cg         HM450-B2    
 7 cg00000~ NA      4.38e7 II     Both          <NA>  cg         HM450-B2    
 8 cg00000~ NA      6.28e7 II     Both          <NA>  cg         HM450-B2    
 9 cg00000~ NA      1.67e7 II     Both          <NA>  cg         HM450-B2    
10 cg00000~  3.87e7 1.16e7 I      Red           R     cg         HM450-B2    
# ... with 486,417 more rows, and 4 more variables: Next_Base <chr>,
#   Next_Base_hg19 <chr>, Next_Base_hg38 <chr>, Probe_Design <chr>

$`LEGX-C24`
# A tibble: 297,415 x 36
   Probe_ID     M      U DESIGN COLOR_CHANNEL col   Next_Base Seq_ID Probe_Type
   <chr>    <int>  <int> <chr>  <chr>         <chr> <chr>     <chr>  <chr>     
 1 cg00101~    NA 9.17e7 II     Both          <NA>  <NA>      cg001~ cg        
 2 cg00116~    NA 2.06e7 II     Both          <NA>  <NA>      cg001~ cg        
 3 cg00211~    NA 6.76e7 II     Both          <NA>  <NA>      cg002~ cg        
 4 cg00531~    NA 3.76e6 II     Both          <NA>  <NA>      cg005~ cg        
 5 cg00747~    NA 5.57e7 II     Both          <NA>  <NA>      cg007~ cg        
 6 cg00896~    NA 2.87e7 II     Both          <NA>  <NA>      cg008~ cg        
 7 cg00910~    NA 8.48e7 II     Both          <NA>  <NA>      cg009~ cg        
 8 cg00920~    NA 4.58e7 II     Both          <NA>  <NA>      cg009~ cg        
 9 cg01326~    NA 4.67e7 II     Both          <NA>  <NA>      cg013~ cg        
10 cg01340~    NA 4.78e7 II     Both          <NA>  <NA>      cg013~ cg        
# ... with 297,405 more rows, and 27 more variables: Probe_Source <chr>,
#   Version <chr>, Strand_TB <chr>, Strand_CO <chr>, Infinium_Design <dbl>,
#   AlleleA_Probe_Sequence <chr>, AlleleB_Probe_Sequence <chr>,
#   Probe_Class <chr>, Seq_48U <chr>, AQP <dbl>, Rep_Cnt <dbl>, ValidID <lgl>,
#   Assay_Class <chr>, Top_Sequence <chr>, Design_ID <lgl>, PIDX <lgl>,
#   Design_Base_ID <lgl>, Design_Base_AB <lgl>, Control_Group <lgl>,
#   Control_Group_Str <lgl>, DiNuc <lgl>, N1 <lgl>, N2 <lgl>,
#   COLOR_CHANNEL_A <lgl>, COLOR_CHANNEL_B <lgl>, PID_CNT <lgl>,
#   Probe_Design <chr>
…
# ----- ----- ----- ----- ----- -----|----- ----- ----- ----- ----- ----- #

[sesamizeSingleSample]:		 Building RAW SSET...
[newSset]:		 Starting; platform=EPIC, prefix=/input/206203800149_R01C01.
[newSset]:		 manifest=
# A tibble: 866,553 x 10
   Probe_ID     M      U DESIGN COLOR_CHANNEL col   Probe_Type Probe_Source
   <chr>    <int>  <int> <chr>  <chr>         <chr> <chr>      <chr>       
 1 cg00000~    NA 4.07e7 II     Both          <NA>  cg         EPIC-B4     
 2 cg00000~    NA 7.67e7 II     Both          <NA>  cg         EPIC-B4     
 3 cg00000~    NA 3.98e7 II     Both          <NA>  cg         EPIC-B4     
 4 cg00000~    NA 2.27e7 II     Both          <NA>  cg         EPIC-B4     
 5 cg00000~    NA 3.36e7 II     Both          <NA>  cg         EPIC-B4     
 6 cg00000~    NA 8.71e6 II     Both          <NA>  cg         EPIC-B4     
 7 cg00000~    NA 9.38e7 II     Both          <NA>  cg         EPIC-B4     
 8 cg00000~    NA 6.36e7 II     Both          <NA>  cg         EPIC-B4     
 9 cg00000~    NA 1.27e7 II     Both          <NA>  cg         EPIC-B4     
10 cg00000~    NA 9.47e7 II     Both          <NA>  cg         EPIC-B4     
# ... with 866,543 more rows, and 2 more variables: Next_Base <chr>,
#   Probe_Design <chr>
…
		# ----- ----- ----- ----- ----- -----|----- ----- ----- ----- ----- ----- #

[ssetToSummary]:		 Starting; workflow=raw...
[ssetToSummary]:			 pval=pOOBAH; min=0.05, perc=96.
[ssetToTib]:			 Starting...
[ssetToTib]:			 ret_tib(865918)=
# A tibble: 865,918 x 2
   Probe_ID   pvals_pOOBAH
   <chr>             <dbl>
 1 cg00000622     0.000481
 2 cg00001245     0.000551
 3 cg00001510     0.000070
 4 cg00001583     0.00190 
 5 cg00001594     0.00326 
 6 cg00001687     0.000461
 7 cg00001747     0.00398 
 8 cg00001793     0.309   
 9 cg00002028     0.00038 
10 cg00002116     0.00005 
# ... with 865,908 more rows
[ssetToTib]:			 Done; Return Count=865918; elapsed=0.07.

			# ----- ----- ----- ----- ----- -----|----- ----- ----- ----- ----- ----- #

[ssetToSummary]:			pval_sum_tab(pOOBAH,min=0.05,per=96)=
# A tibble: 865,918 x 2
   Probe_ID   pvals_pOOBAH
   <chr>             <dbl>
 1 cg00000622     0.000481
 2 cg00001245     0.000551
 3 cg00001510     0.000070
 4 cg00001583     0.00190 
 5 cg00001594     0.00326 
 6 cg00001687     0.000461
 7 cg00001747     0.00398 
 8 cg00001793     0.309   
 9 cg00002028     0.00038 
10 cg00002116     0.00005 
# ... with 865,908 more rows
…
[ssetTibToSummary]:			 Starting; by=Probe_ID, type=Probe_Type, des=Probe_Design...
[ssetTibToSummary]:				 pval=0.05...
[ssetTibToSummary]:				 perc=96...
[ssetTibToSummary]:				 Will use provided manifest...
# A tibble: 866,553 x 10
   Probe_ID     M      U DESIGN COLOR_CHANNEL col   Probe_Type Probe_Source
   <chr>    <int>  <int> <chr>  <chr>         <chr> <chr>      <chr>       
 1 cg00000~    NA 4.07e7 II     Both          <NA>  cg         EPIC-B4     
 2 cg00000~    NA 7.67e7 II     Both          <NA>  cg         EPIC-B4     
 3 cg00000~    NA 3.98e7 II     Both          <NA>  cg         EPIC-B4     
 4 cg00000~    NA 2.27e7 II     Both          <NA>  cg         EPIC-B4     
 5 cg00000~    NA 3.36e7 II     Both          <NA>  cg         EPIC-B4     
 6 cg00000~    NA 8.71e6 II     Both          <NA>  cg         EPIC-B4     
 7 cg00000~    NA 9.38e7 II     Both          <NA>  cg         EPIC-B4     
 8 cg00000~    NA 6.36e7 II     Both          <NA>  cg         EPIC-B4     
 9 cg00000~    NA 1.27e7 II     Both          <NA>  cg         EPIC-B4     
10 cg00000~    NA 9.47e7 II     Both          <NA>  cg         EPIC-B4     
# ... with 866,543 more rows, and 2 more variables: Next_Base <chr>,
#   Probe_Design <chr>
[ssetTibToSummary]:				 right_join3(by,type,des)...
[ssetTibToSummary]:			 Applying pval cutoff=0.05...
# A tibble: 865,918 x 4
   Probe_ID   Probe_Type Probe_Design pvals_pOOBAH
   <chr>      <chr>      <chr>               <dbl>
 1 cg00000029 cg         2                0.0160  
 2 cg00000103 cg         2                0.386   
 3 cg00000109 cg         2                0.0100  
 4 cg00000155 cg         2                0.00129 
 5 cg00000158 cg         2                0.00112 
 6 cg00000165 cg         2                0.0667  
 7 cg00000221 cg         2                0.00599 
 8 cg00000236 cg         2                0.0112  
 9 cg00000289 cg         2                0.224   
10 cg00000292 cg         2                0.000222
# ... with 865,908 more rows
…
			# ----- ----- ----- ----- ----- -----|----- ----- ----- ----- ----- ----- #

[ssetToSummary]:			pval_dat_tib(pOOBAH,min=0.05,per=96)=
# A tibble: 865,918 x 2
   Probe_ID   pvals_pOOBAH
   <chr>             <dbl>
 1 cg00000622     0.000481
 2 cg00001245     0.000551
 3 cg00001510     0.000070
 4 cg00001583     0.00190 
 5 cg00001594     0.00326 
 6 cg00001687     0.000461
 7 cg00001747     0.00398 
 8 cg00001793     0.309   
 9 cg00002028     0.00038 
10 cg00002116     0.00005 
# ... with 865,908 more rows
[ssetToSummary]:			pval_sum_tib(pOOBAH,min=0.05,per=96)=
# A tibble: 5 x 11
  Probe_Type Probe_Design Metric     min  median   mean     sd   max
  <chr>      <chr>        <chr>    <dbl>   <dbl>  <dbl>  <dbl> <dbl>
1 cg         1            pvals~ 0.      8.41e-4 0.0127 0.0554 0.997
2 cg         2            pvals~ 0.      1.86e-3 0.0328 0.0936 0.998
3 ch         2            pvals~ 0.      1.94e-2 0.0751 0.115  0.998
4 rs         1            pvals~ 6.50e-5 1.11e-2 0.0749 0.121  0.477
5 rs         2            pvals~ 4.90e-5 2.66e-3 0.0145 0.0360 0.165
# ... with 3 more variables: full_pass_perc <dbl>, Requeue <chr>,
#   pass_perc <dbl>
[ssetToSummary]:			 pval=PnegEcdf; min=0.02, perc=98.
[ssetToTib]:			 Starting...
[ssetToTib]:			 ret_tib(865918)=
# A tibble: 865,918 x 2
   Probe_ID   pvals_PnegEcdf
   <chr>               <dbl>
 1 cg00000622              0
 2 cg00001245              0
 3 cg00001510              0
 4 cg00001583              0
 5 cg00001594              0
 6 cg00001687              0
 7 cg00001747              0
 8 cg00001793              0
 9 cg00002028              0
10 cg00002116              0
# ... with 865,908 more rows
[ssetToTib]:			 Done; Return Count=865918; elapsed=0.02.

			# ----- ----- ----- ----- ----- -----|----- ----- ----- ----- ----- ----- #

[ssetToSummary]:			pval_sum_tab(PnegEcdf,min=0.02,per=98)=
# A tibble: 865,918 x 2
   Probe_ID   pvals_PnegEcdf
   <chr>               <dbl>
 1 cg00000622              0
 2 cg00001245              0
 3 cg00001510              0
 4 cg00001583              0
 5 cg00001594              0
 6 cg00001687              0
 7 cg00001747              0
 8 cg00001793              0
 9 cg00002028              0
10 cg00002116              0
# ... with 865,908 more rows
…
[ssetTibToSummary]:			 Starting; by=Probe_ID, type=Probe_Type, des=Probe_Design...
[ssetTibToSummary]:				 pval=0.02...
[ssetTibToSummary]:				 perc=98...
[ssetTibToSummary]:				 Will use provided manifest...
# A tibble: 866,553 x 10
   Probe_ID     M      U DESIGN COLOR_CHANNEL col   Probe_Type Probe_Source
   <chr>    <int>  <int> <chr>  <chr>         <chr> <chr>      <chr>       
 1 cg00000~    NA 4.07e7 II     Both          <NA>  cg         EPIC-B4     
 2 cg00000~    NA 7.67e7 II     Both          <NA>  cg         EPIC-B4     
 3 cg00000~    NA 3.98e7 II     Both          <NA>  cg         EPIC-B4     
 4 cg00000~    NA 2.27e7 II     Both          <NA>  cg         EPIC-B4     
 5 cg00000~    NA 3.36e7 II     Both          <NA>  cg         EPIC-B4     
 6 cg00000~    NA 8.71e6 II     Both          <NA>  cg         EPIC-B4     
 7 cg00000~    NA 9.38e7 II     Both          <NA>  cg         EPIC-B4     
 8 cg00000~    NA 6.36e7 II     Both          <NA>  cg         EPIC-B4     
 9 cg00000~    NA 1.27e7 II     Both          <NA>  cg         EPIC-B4     
10 cg00000~    NA 9.47e7 II     Both          <NA>  cg         EPIC-B4     
# ... with 866,543 more rows, and 2 more variables: Next_Base <chr>,
#   Probe_Design <chr>
[ssetTibToSummary]:				 right_join3(by,type,des)...
[ssetTibToSummary]:			 Applying pval cutoff=0.02...
# A tibble: 865,918 x 4
   Probe_ID   Probe_Type Probe_Design pvals_PnegEcdf
   <chr>      <chr>      <chr>                 <dbl>
 1 cg00000029 cg         2                         0
 2 cg00000103 cg         2                         0
 3 cg00000109 cg         2                         0
 4 cg00000155 cg         2                         0
 5 cg00000158 cg         2                         0
 6 cg00000165 cg         2                         0
 7 cg00000221 cg         2                         0
 8 cg00000236 cg         2                         0
 9 cg00000289 cg         2                         0
10 cg00000292 cg         2                         0
# ... with 865,908 more rows
…
